{
	"info": {
		"_postman_id": "8105581c-6da8-41d6-95d0-8eeb7672bb3d",
		"name": "delilah",
		"schema": "https://schema.getpostman.com/json/collection/v2.1.0/collection.json"
	},
	"item": [
		{
			"name": "login",
			"request": {
				"method": "POST",
				"header": [
					{
						"key": "Authorization",
						"value": "Bearer eyJhbGciOiJIUzI1NiIsInR5cCI6IkpXVCJ9.eyJ1c3VhcmlvIjoidXN1YXJpbzIiLCJpYXQiOjE1OTY5OTkwOTl9.BstVQU3d7bOVsXjuV9b6SpvFoufi4hnCSxTeNsi8SRM",
						"type": "text",
						"disabled": true
					}
				],
				"body": {
					"mode": "raw",
					"raw": "{\n   \"user\": \"admin\",\n   \"password\": \"admin\"\n   \n}",
					"options": {
						"raw": {
							"language": "json"
						}
					}
				},
				"url": {
					"raw": "127.0.0.1:8080/api/login",
					"host": [
						"127",
						"0",
						"0",
						"1"
					],
					"port": "8080",
					"path": [
						"api",
						"login"
					],
					"query": [
						{
							"key": "id",
							"value": "1",
							"disabled": true
						}
					]
				}
			},
			"response": []
		},
		{
			"name": "Get Users",
			"request": {
				"auth": {
					"type": "noauth"
				},
				"method": "GET",
				"header": [
					{
						"key": "id",
						"value": "35",
						"type": "text",
						"disabled": true
					}
				],
				"url": {
					"raw": "127.0.0.1:8080/api/users/",
					"host": [
						"127",
						"0",
						"0",
						"1"
					],
					"port": "8080",
					"path": [
						"api",
						"users",
						""
					],
					"query": [
						{
							"key": "id",
							"value": "35",
							"disabled": true
						}
					]
				},
				"description": "Obtener usuarios"
			},
			"response": []
		},
		{
			"name": "Add User",
			"request": {
				"method": "POST",
				"header": [
					{
						"key": "Authorization",
						"value": "Bearer eyJhbGciOiJIUzI1NiIsInR5cCI6IkpXVCJ9.eyJ1c3VhcmlvIjoidXN1YXJpbzIiLCJpYXQiOjE1OTY5OTkwOTl9.BstVQU3d7bOVsXjuV9b6SpvFoufi4hnCSxTeNsi8SRM",
						"type": "text",
						"disabled": true
					}
				],
				"body": {
					"mode": "raw",
					"raw": "{\n    \"first_name\": \"user prueba2\",\n    \"last_name\": \"last prueba2\",\n    \"email\": \"prueba2@user.com\",\n    \"username\": \"prueba2\",\n    \"address\": \"colon123\",\n    \"phonenumber\": \"31441244341\",\n    \"isadmin\": 0,\n    \"password\": \"prueba2\"\n}",
					"options": {
						"raw": {
							"language": "json"
						}
					}
				},
				"url": {
					"raw": "127.0.0.1:8080/api/adduser",
					"host": [
						"127",
						"0",
						"0",
						"1"
					],
					"port": "8080",
					"path": [
						"api",
						"adduser"
					],
					"query": [
						{
							"key": "id",
							"value": "1",
							"disabled": true
						}
					]
				}
			},
			"response": []
		},
		{
			"name": "edit User",
			"request": {
				"auth": {
					"type": "noauth"
				},
				"method": "PUT",
				"header": [
					{
						"key": "Authorization",
						"value": "Bearer eyJhbGciOiJIUzI1NiIsInR5cCI6IkpXVCJ9.eyJ1c3VhcmlvIjoidXN1YXJpbzIiLCJpYXQiOjE1OTY5OTkwOTl9.BstVQU3d7bOVsXjuV9b6SpvFoufi4hnCSxTeNsi8SRM",
						"type": "text",
						"disabled": true
					}
				],
				"body": {
					"mode": "raw",
					"raw": "{\n    \"first_name\": \"user de prueba2\",\n    \"last_name\": \"last prueba2\",\n    \"email\": \"prueba2@user.com\",\n    \"username\": \"prueba2\",\n    \"address\": \"colon123\",\n    \"phonenumber\": \"31441244341\",\n    \"isadmin\": 0,\n    \"password\": \"prueba2\"\n}",
					"options": {
						"raw": {
							"language": "json"
						}
					}
				},
				"url": {
					"raw": "127.0.0.1:8080/api/edituser",
					"host": [
						"127",
						"0",
						"0",
						"1"
					],
					"port": "8080",
					"path": [
						"api",
						"edituser"
					],
					"query": [
						{
							"key": "id",
							"value": "3",
							"disabled": true
						}
					]
				}
			},
			"response": []
		},
		{
			"name": "Delete User",
			"request": {
				"auth": {
					"type": "noauth"
				},
				"method": "DELETE",
				"header": [
					{
						"key": "Authorization",
						"value": "Bearer eyJhbGciOiJIUzI1NiIsInR5cCI6IkpXVCJ9.eyJ1c3VhcmlvIjoidXN1YXJpbzIiLCJpYXQiOjE1OTY5OTkwOTl9.BstVQU3d7bOVsXjuV9b6SpvFoufi4hnCSxTeNsi8SRM",
						"type": "text",
						"disabled": true
					}
				],
				"body": {
					"mode": "raw",
					"raw": "{  \"id\": 2\n}",
					"options": {
						"raw": {
							"language": "json"
						}
					}
				},
				"url": {
					"raw": "127.0.0.1:8080/api/deleteuser",
					"host": [
						"127",
						"0",
						"0",
						"1"
					],
					"port": "8080",
					"path": [
						"api",
						"deleteuser"
					],
					"query": [
						{
							"key": "id",
							"value": "1",
							"disabled": true
						}
					]
				}
			},
			"response": []
		},
		{
			"name": "Get Products",
			"protocolProfileBehavior": {
				"disableBodyPruning": true
			},
			"request": {
				"auth": {
					"type": "noauth"
				},
				"method": "GET",
				"header": [
					{
						"key": "Authorization",
						"value": "Bearer eyJhbGciOiJIUzI1NiIsInR5cCI6IkpXVCJ9.eyJ1c3VhcmlvIjoidXN1YXJpbzIiLCJpYXQiOjE1OTY5OTkwOTl9.BstVQU3d7bOVsXjuV9b6SpvFoufi4hnCSxTeNsi8SRM",
						"type": "text",
						"disabled": true
					}
				],
				"body": {
					"mode": "raw",
					"raw": "{\n   \"description\": \"order description\",\n   \"address\": \"colon 123\",\n   \"status_id\": 1,\n   \"payment_methods_id\": 1,\n   \"users_id\": 11,\n   \"products\": \n   [\n       {\n           \"quantity\": 2,\n           \"products_id\": 1\n       }, \n       {\n           \"quantity\": 1,\n           \"products_id\": 2\n       }\n   ]\n}\n ",
					"options": {
						"raw": {
							"language": "json"
						}
					}
				},
				"url": {
					"raw": "127.0.0.1:8080/api/products",
					"host": [
						"127",
						"0",
						"0",
						"1"
					],
					"port": "8080",
					"path": [
						"api",
						"products"
					],
					"query": [
						{
							"key": "id",
							"value": "1",
							"disabled": true
						}
					]
				}
			},
			"response": []
		},
		{
			"name": "Add Products",
			"request": {
				"auth": {
					"type": "noauth"
				},
				"method": "POST",
				"header": [
					{
						"key": "Authorization",
						"value": "Bearer eyJhbGciOiJIUzI1NiIsInR5cCI6IkpXVCJ9.eyJ1c2VyIjoidXNlcjMiLCJnZXRJZCI6MTEsImlhdCI6MTYwNDA2OTc5NH0.I1hPzbAwJwbS6xAsFVYNT5fsXrbXF5l_0J16vAvPnM4",
						"type": "text"
					}
				],
				"body": {
					"mode": "raw",
					"raw": "{\n   \"name\": \"pan2\",\n   \"price_unit\": 2,\n   \"description\": \"pan duro\",\n   \"url_img\": \"/127.0.0.1/img.jpg\"\n}",
					"options": {
						"raw": {
							"language": "json"
						}
					}
				},
				"url": {
					"raw": "127.0.0.1:8080/api/addproducts",
					"host": [
						"127",
						"0",
						"0",
						"1"
					],
					"port": "8080",
					"path": [
						"api",
						"addproducts"
					],
					"query": [
						{
							"key": "id",
							"value": "1",
							"disabled": true
						}
					]
				}
			},
			"response": []
		},
		{
			"name": "Edit products",
			"request": {
				"auth": {
					"type": "noauth"
				},
				"method": "PUT",
				"header": [
					{
						"key": "Authorization",
						"value": "Bearer eyJhbGciOiJIUzI1NiIsInR5cCI6IkpXVCJ9.eyJ1c3VhcmlvIjoidXN1YXJpbzIiLCJpYXQiOjE1OTY5OTkwOTl9.BstVQU3d7bOVsXjuV9b6SpvFoufi4hnCSxTeNsi8SRM",
						"type": "text",
						"disabled": true
					}
				],
				"body": {
					"mode": "raw",
					"raw": "{  \"id\": 2,\n   \"name\": \"pan\",\n   \"price_unit\": 2,\n   \"description\": \"pan duro\",\n   \"url_img\": \"/127.0.0.1/img.jpg\"\n}",
					"options": {
						"raw": {
							"language": "json"
						}
					}
				},
				"url": {
					"raw": "127.0.0.1:8080/api/editproducts",
					"host": [
						"127",
						"0",
						"0",
						"1"
					],
					"port": "8080",
					"path": [
						"api",
						"editproducts"
					],
					"query": [
						{
							"key": "id",
							"value": "1",
							"disabled": true
						}
					]
				}
			},
			"response": []
		},
		{
			"name": "Delete Products",
			"request": {
				"auth": {
					"type": "noauth"
				},
				"method": "DELETE",
				"header": [
					{
						"key": "Authorization",
						"value": "Bearer eyJhbGciOiJIUzI1NiIsInR5cCI6IkpXVCJ9.eyJ1c3VhcmlvIjoidXN1YXJpbzIiLCJpYXQiOjE1OTY5OTkwOTl9.BstVQU3d7bOVsXjuV9b6SpvFoufi4hnCSxTeNsi8SRM",
						"type": "text",
						"disabled": true
					}
				],
				"body": {
					"mode": "raw",
					"raw": "{  \"id\": 2\n}",
					"options": {
						"raw": {
							"language": "json"
						}
					}
				},
				"url": {
					"raw": "127.0.0.1:8080/api/deleteproducts",
					"host": [
						"127",
						"0",
						"0",
						"1"
					],
					"port": "8080",
					"path": [
						"api",
						"deleteproducts"
					],
					"query": [
						{
							"key": "id",
							"value": "1",
							"disabled": true
						}
					]
				}
			},
			"response": []
		},
		{
			"name": "Get Order",
			"protocolProfileBehavior": {
				"disableBodyPruning": true
			},
			"request": {
				"auth": {
					"type": "noauth"
				},
				"method": "GET",
				"header": [
					{
						"key": "Authorization",
						"value": "Bearer eyJhbGciOiJIUzI1NiIsInR5cCI6IkpXVCJ9.eyJ1c3VhcmlvIjoidXN1YXJpbzIiLCJpYXQiOjE1OTY5OTkwOTl9.BstVQU3d7bOVsXjuV9b6SpvFoufi4hnCSxTeNsi8SRM",
						"type": "text",
						"disabled": true
					}
				],
				"body": {
					"mode": "raw",
					"raw": "",
					"options": {
						"raw": {
							"language": "json"
						}
					}
				},
				"url": {
					"raw": "127.0.0.1:8080/api/order?id=5",
					"host": [
						"127",
						"0",
						"0",
						"1"
					],
					"port": "8080",
					"path": [
						"api",
						"order"
					],
					"query": [
						{
							"key": "id",
							"value": "5"
						}
					]
				}
			},
			"response": []
		},
		{
			"name": "Add Orders",
			"request": {
				"auth": {
					"type": "noauth"
				},
				"method": "POST",
				"header": [
					{
						"key": "Authorization",
						"value": "Bearer eyJhbGciOiJIUzI1NiIsInR5cCI6IkpXVCJ9.eyJ1c3VhcmlvIjoidXN1YXJpbzIiLCJpYXQiOjE1OTY5OTkwOTl9.BstVQU3d7bOVsXjuV9b6SpvFoufi4hnCSxTeNsi8SRM",
						"type": "text",
						"disabled": true
					}
				],
				"body": {
					"mode": "raw",
					"raw": "{\n   \"description\": \"order description\",\n   \"address\": \"colon 123\",\n   \"status_id\": 1,\n   \"payment_methods_id\": 1,\n   \"users_id\": 3,\n   \"products\": \n   [\n       {\n           \"quantity\": 2,\n           \"products_id\": 1\n       }, \n       {\n           \"quantity\": 30,\n           \"products_id\": 3\n       }\n   ]\n}",
					"options": {
						"raw": {
							"language": "json"
						}
					}
				},
				"url": {
					"raw": "127.0.0.1:8080/api/addorder",
					"host": [
						"127",
						"0",
						"0",
						"1"
					],
					"port": "8080",
					"path": [
						"api",
						"addorder"
					],
					"query": [
						{
							"key": "id",
							"value": "1",
							"disabled": true
						}
					]
				}
			},
			"response": []
		},
		{
			"name": "Edit Order",
			"request": {
				"auth": {
					"type": "bearer",
					"bearer": [
						{
							"key": "token",
							"value": "eyJhbGciOiJIUzI1NiIsInR5cCI6IkpXVCJ9.eyJ1c2VyIjoicHJ1ZWJhMSIsImdldElkIjozNywiaWF0IjoxNjA1NTM4NTgzfQ.FPnQWUOr9oQdGjg0Brs4DcihopkMGvxDfCbMy_PKEO8",
							"type": "string"
						}
					]
				},
				"method": "PUT",
				"header": [],
				"body": {
					"mode": "raw",
					"raw": "{\n   \"description\": \"order description\",\n   \"address\": \"modi\",\n   \"status_id\": 1,\n   \"payment_methods_id\": 1,\n   \"users_id\": 1,\n   \"products\": \n   [\n       {\n           \"quantity\": 8,\n           \"products_id\": 1\n       }, \n       {\n           \"quantity\": 8,\n           \"products_id\": 2\n       }\n   ]\n}",
					"options": {
						"raw": {
							"language": "json"
						}
					}
				},
				"url": {
					"raw": "127.0.0.1:8080/api/editorder?id=3",
					"host": [
						"127",
						"0",
						"0",
						"1"
					],
					"port": "8080",
					"path": [
						"api",
						"editorder"
					],
					"query": [
						{
							"key": "id",
							"value": "3"
						}
					]
				}
			},
			"response": []
		},
		{
			"name": "Edit order status",
			"request": {
				"auth": {
					"type": "noauth"
				},
				"method": "PUT",
				"header": [
					{
						"key": "Authorization",
						"value": "Bearer eyJhbGciOiJIUzI1NiIsInR5cCI6IkpXVCJ9.eyJ1c3VhcmlvIjoidXN1YXJpbzIiLCJpYXQiOjE1OTY5OTkwOTl9.BstVQU3d7bOVsXjuV9b6SpvFoufi4hnCSxTeNsi8SRM",
						"type": "text",
						"disabled": true
					}
				],
				"body": {
					"mode": "raw",
					"raw": "{\n   \"id\": 7,\n   \"status_id\": 4\n}",
					"options": {
						"raw": {
							"language": "json"
						}
					}
				},
				"url": {
					"raw": "127.0.0.1:8080/api/orderstatus",
					"host": [
						"127",
						"0",
						"0",
						"1"
					],
					"port": "8080",
					"path": [
						"api",
						"orderstatus"
					],
					"query": [
						{
							"key": "id",
							"value": "1",
							"disabled": true
						}
					]
				}
			},
			"response": []
		},
		{
			"name": "Delete Order",
			"request": {
				"method": "DELETE",
				"header": [],
				"body": {
					"mode": "raw",
					"raw": "{\n    \"id\": 150\n}",
					"options": {
						"raw": {
							"language": "json"
						}
					}
				},
				"url": {
					"raw": "127.0.0.1:8080/api/deleteorder",
					"host": [
						"127",
						"0",
						"0",
						"1"
					],
					"port": "8080",
					"path": [
						"api",
						"deleteorder"
					]
				}
			},
			"response": []
		}
	],
	"protocolProfileBehavior": {}
}